<?xml version="1.0" encoding="UTF-8"?>
<svg height="16px" viewBox="0 0 16 16" width="16px" xmlns="http://www.w3.org/2000/svg">
    <path d="m 5.730469 6 c -1.296875 0.046875 -2.660157 0.277344 -3.761719 0.804688 c -1.097656 0.53125 -1.96875 1.453124 -1.96875 2.726562 v 1.007812 c 0 1.269532 0.796875 2.367188 1.871094 3.144532 c 1.074218 0.777344 2.453125 1.265625 3.808594 1.316406 h 0.019531 c 0.398437 0 0.746093 -0.179688 0.980469 -0.394531 c 0.234374 -0.210938 0.390624 -0.453125 0.53125 -0.660157 c 0.144531 -0.207031 0.273437 -0.375 0.394531 -0.476562 c 0.117187 -0.101562 0.210937 -0.144531 0.394531 -0.144531 s 0.277344 0.042969 0.398438 0.144531 c 0.117187 0.101562 0.246093 0.269531 0.390624 0.476562 c 0.140626 0.207032 0.296876 0.445313 0.53125 0.660157 c 0.234376 0.214843 0.578126 0.394531 0.976563 0.394531 h 0.019531 c 1.355469 -0.050781 2.738282 -0.539062 3.8125 -1.3125 c 1.074219 -0.777344 1.871094 -1.878906 1.871094 -3.148438 v -1.007812 c 0 -1.273438 -0.871094 -2.195312 -1.96875 -2.726562 c -1.097656 -0.527344 -2.460938 -0.757813 -3.757812 -0.804688 z m 0.035156 1 h 4.46875 c 1.199219 0.042969 2.460937 0.273438 3.359375 0.707031 c 0.902344 0.433594 1.40625 0.980469 1.40625 1.824219 v 1.007812 c 0 0.84375 -0.554688 1.683594 -1.457031 2.335938 c -0.898438 0.648438 -2.117188 1.074219 -3.253907 1.121094 c -0.128906 -0.003906 -0.1875 -0.03125 -0.296874 -0.128906 c -0.105469 -0.097657 -0.234376 -0.277344 -0.382813 -0.492188 c -0.148437 -0.210938 -0.316406 -0.460938 -0.570313 -0.675781 c -0.257812 -0.210938 -0.621093 -0.375 -1.039062 -0.375 s -0.78125 0.164062 -1.039062 0.375 c -0.253907 0.214843 -0.425782 0.464843 -0.574219 0.675781 c -0.144531 0.214844 -0.273438 0.394531 -0.382813 0.492188 c -0.105468 0.097656 -0.167968 0.128906 -0.296875 0.128906 c -1.136719 -0.046875 -2.351562 -0.472656 -3.25 -1.121094 c -0.902343 -0.652344 -1.457031 -1.488281 -1.457031 -2.335938 v -1.007812 c 0 -0.84375 0.503906 -1.390625 1.40625 -1.824219 c 0.898438 -0.433593 2.160156 -0.664062 3.359375 -0.707031 z m 0 0"/>
    <path d="m 2.558594 3 c -0.28125 0 -0.480469 0.164062 -0.601563 0.3125 c -0.117187 0.144531 -0.199219 0.296875 -0.277343 0.476562 c -0.148438 0.351563 -0.265626 0.78125 -0.363282 1.253907 c -0.199218 0.941406 -0.316406 2.019531 -0.316406 2.738281 h 1 c 0 -0.601562 0.113281 -1.664062 0.292969 -2.53125 c 0.09375 -0.433594 0.203125 -0.824219 0.308593 -1.070312 c 0.035157 -0.082032 0.058594 -0.113282 0.085938 -0.152344 c 0.121094 0.015625 0.300781 0.046875 0.59375 0.128906 c 0.355469 0.105469 0.792969 0.25 1.285156 0.394531 c 0.984375 0.289063 2.183594 0.589844 3.433594 0.589844 s 2.449219 -0.300781 3.433594 -0.589844 c 0.492187 -0.144531 0.933594 -0.289062 1.285156 -0.394531 c 0.292969 -0.085938 0.480469 -0.113281 0.601562 -0.128906 c 0.023438 0.039062 0.046876 0.066406 0.082032 0.144531 c 0.101562 0.238281 0.210937 0.617187 0.304687 1.046875 c 0.179688 0.855469 0.292969 1.917969 0.292969 2.5625 h 1 c 0 -0.757812 -0.117188 -1.835938 -0.316406 -2.769531 c -0.097656 -0.46875 -0.214844 -0.894531 -0.367188 -1.242188 c -0.074218 -0.171875 -0.15625 -0.328125 -0.277344 -0.46875 c -0.125 -0.140625 -0.320312 -0.300781 -0.597656 -0.300781 c -0.320312 0 -0.625 0.089844 -1.003906 0.199219 s -0.8125 0.253906 -1.289062 0.394531 c -0.949219 0.277344 -2.0625 0.546875 -3.148438 0.546875 s -2.199219 -0.269531 -3.148438 -0.546875 c -0.476562 -0.140625 -0.910156 -0.285156 -1.289062 -0.394531 s -0.683594 -0.199219 -1.003906 -0.199219 z m 0 0"/>
</svg>
